Project 1 - What Lyrics Say
…
Project 1 - What Lyrics Say

Every musical genre has its own set of conventions beyond the music. Take country, rap or any other label and you automatically connote a certain set of principles, a way of life. Music, perhaps more than any other art form today, is one understood through a system of categorization (Chan, 2007). Different types of music influence each individual differently. It even goes to the extent of the type of song a person is listening to, such as an up beat song or a sad and slow song.

How does music affect people perspectives? Music and perspectives go together because most of the songs we listen to has lyrics written by someone usually based on physical or emotional struggles. And sometimes the lyrics of a song relates to similar issues we may be dealing with in our lives so this creates some kind of connection between the music and our lives in general.

In this project, I am interested in exploring the connection between the music and our lives by answering these questions: which are the words you hear the most while listening to music? In different genres, which are the most used words? Which genres is the word love most used? I tried to answer them by using lyrics databases and analyzing them with Rstudio. In lyrics datasets, there are 10 types of genres of music: which are: country, eletronic, folk, hip-hop, indie, Jazz, Metal, Pop, R&B, and Rock. I focus on the genres including: Electronic, Hip-Hop, Rock, Metal, and Country.

Section 1: Grance the database

Who are the artists?

## # A tibble: 2,535 x 2
## # Groups:   artist [2,535]
##    artist               n
##    <chr>            <int>
##  1 dolly-parton       717
##  2 elton-john         619
##  3 chris-brown        596
##  4 bee-gees           577
##  5 bob-dylan          563
##  6 eddy-arnold        562
##  7 barbra-streisand   561
##  8 eminem             545
##  9 ella-fitzgerald    543
## 10 dean-martin        516
## # ... with 2,525 more rows

Section 2: Lyrics Analysis

First, count and find the most common words in all the lyrics as a whole.

## # A tibble: 232,397 x 3
## # Groups:   genre [12]
##    genre word      n
##    <chr> <chr> <int>
##  1 Rock  love  77803
##  2 Rock  time  56019
##  3 Pop   love  53150
##  4 Rock  youre 50548
##  5 Rock  ill   33160
##  6 Rock  day   32694
##  7 Rock  ive   30295
##  8 Rock  baby  29851
##  9 Rock  life  27917
## 10 Rock  night 26968
## # ... with 232,387 more rows
…
tf-idf

## # A tibble: 232,397 x 6
## # Groups:   genre [12]
##    genre   word          n       tf   idf  tf_idf
##    <chr>   <chr>     <int>    <dbl> <dbl>   <dbl>
##  1 Other   niggas       78 0.00611  0.405 0.00248
##  2 Hip-Hop niggas    10441 0.00599  0.405 0.00243
##  3 Other   herbo        12 0.000941 2.48  0.00234
##  4 Folk    diddleee     30 0.000728 2.48  0.00181
##  5 Folk    monto        28 0.000679 2.48  0.00169
##  6 Folk    dumba        36 0.000874 1.79  0.00157
##  7 Other   baecation     8 0.000627 2.48  0.00156
##  8 Other   bibbity       8 0.000627 2.48  0.00156
##  9 Other   kneeewww      7 0.000549 2.48  0.00136
## 10 Indie   mooday       41 0.000518 2.48  0.00129
## # ... with 232,387 more rows
…
